<svg width="12" height="16" viewBox="0 0 12 16" fill="none" xmlns="http://www.w3.org/2000/svg">
<path d="M7 4.25V2.68122e-06H0.750003C0.651437 -0.000261217 0.553792 0.018958 0.462678 0.0565555C0.371565 0.0941531 0.288781 0.149388 0.219084 0.219084C0.149388 0.288781 0.0941531 0.371565 0.0565555 0.462678C0.018958 0.553792 -0.000261217 0.651437 2.68122e-06 0.750003V15.25C-0.000261217 15.3486 0.018958 15.4462 0.0565555 15.5373C0.0941531 15.6284 0.149388 15.7112 0.219084 15.7809C0.288781 15.8506 0.371565 15.9059 0.462678 15.9434C0.553792 15.981 0.651437 16.0003 0.750003 16H11.25C11.3486 16.0003 11.4462 15.981 11.5373 15.9434C11.6284 15.9059 11.7112 15.8506 11.7809 15.7809C11.8506 15.7112 11.9059 15.6284 11.9434 15.5373C11.981 15.4462 12.0003 15.3486 12 15.25V5H7.75C7.55125 4.99948 7.36079 4.92029 7.22026 4.77975C7.07972 4.63921 7.00053 4.44875 7 4.25ZM9.389 10.855L6.376 13.846C6.27616 13.9451 6.14118 14.0007 6.0005 14.0007C5.85982 14.0007 5.72484 13.9451 5.625 13.846L2.612 10.855C2.54173 10.7853 2.49373 10.6963 2.47407 10.5993C2.45441 10.5023 2.46398 10.4017 2.50156 10.3101C2.53915 10.2186 2.60306 10.1402 2.68521 10.085C2.76735 10.0298 2.86403 10.0002 2.963 10H5V7.5C5 7.36739 5.05268 7.24022 5.14645 7.14645C5.24022 7.05268 5.36739 7 5.5 7H6.5C6.63261 7 6.75979 7.05268 6.85356 7.14645C6.94732 7.24022 7 7.36739 7 7.5V10H9.037C9.13606 10 9.23288 10.0295 9.31518 10.0846C9.39747 10.1397 9.46154 10.2181 9.49925 10.3097C9.53696 10.4013 9.54662 10.502 9.52699 10.5991C9.50736 10.6962 9.45933 10.7852 9.389 10.855ZM11.781 3.281L8.722 0.219003C8.65226 0.149356 8.56945 0.0941595 8.47833 0.0565789C8.38721 0.0189982 8.28957 -0.00022791 8.191 2.68122e-06H8V4H12V3.809C11.9998 3.61095 11.921 3.42107 11.781 3.281Z" fill="white"/>
</svg>
